{
    "data": [
        {
            "title": "document_21",
            "paragraphs": [
                {
                    "context": "Brian Floyd was born in a small town in the Midwest, and his parents always knew he was destined for great things. Standing at 6 feet tall and weighing in at a muscular 190 pounds, Brian has always been a natural athlete, excelling in football, basketball, and track throughout high school and college. His striking blue eyes and sandy blonde hair have made him the object of many a girl's affections, but Brian is focused on his career as a successful lawyer in the city. He speaks fluent English and Spanish, thanks to his mother's heritage, and he holds dual citizenship in the US and Mexico. Brian is unmarried and enjoys the single life, but he is always looking for his next challenge. Dennis Spence grew up on the east coast, the son of a Navy officer and a schoolteacher. At 5'11\" and 175 pounds, he may not be the biggest guy in the room, but he makes up for it with his quick wit and sharp mind. His deep brown eyes and dark hair give him an air of mystery, and he often uses his charming smile to get what he wants. Dennis is fluent in French and German, which he learned during his time studying abroad, and he holds dual citizenship in the US and France. He is happily married to his college sweetheart, and together they run a successful art gallery in the heart of the city. Frederic May was born and raised in the UK, the only child of wealthy parents who spared no expense in his education. At 6'2\" and 200 pounds, he has always been an imposing figure, with striking green eyes and wavy brown hair that he keeps perfectly styled. Frederic is a polyglot, fluent in English, French, German, and Mandarin, and he holds dual citizenship in the UK and China. He has dedicated his life to philanthropy and social justice, using his family's fortune to fund various charities and humanitarian efforts around the world. Though he has had many admirers over the years, Frederic has never married and remains fiercely independent.",
                    "qas": [
                        {
                            "answers": [
                                {
                                    "answer_start": 0,
                                    "text": "Brian"
                                }
                            ],
                            "id": 849,
                            "question": "What is Brian Floyd's first name?",
                            "is_impossible": "false"
                        },
                        {
                            "answers": [
                                {
                                    "answer_start": 6,
                                    "text": "Floyd"
                                }
                            ],
                            "id": 850,
                            "question": "What is Brian Floyd's last name?",
                            "is_impossible": "false"
                        },
                        {
                            "answers": [],
                            "id": -851,
                            "question": "What is Brian Floyd's date of birth?",
                            "is_impossible": "true"
                        },
                        {
                            "answers": [
                                {
                                    "answer_start": 44,
                                    "text": "Midwest"
                                }
                            ],
                            "id": 852,
                            "question": "Where was Brian Floyd born?",
                            "is_impossible": "false"
                        },
                        {
                            "answers": [
                                {
                                    "answer_start": 127,
                                    "text": "6 feet"
                                }
                            ],
                            "id": 853,
                            "question": "What is Brian Floyd's height?",
                            "is_impossible": "false"
                        },
                        {
                            "answers": [
                                {
                                    "answer_start": 169,
                                    "text": "190 pounds"
                                }
                            ],
                            "id": 854,
                            "question": "What is Brian Floyd's weight?",
                            "is_impossible": "false"
                        },
                        {
                            "answers": [
                                {
                                    "answer_start": 316,
                                    "text": "blue"
                                }
                            ],
                            "id": 855,
                            "question": "What is Brian Floyd's eye colour?",
                            "is_impossible": "false"
                        },
                        {
                            "answers": [
                                {
                                    "answer_start": 330,
                                    "text": "sandy blonde"
                                }
                            ],
                            "id": 856,
                            "question": "What is Brian Floyd's hair colour?",
                            "is_impossible": "false"
                        },
                        {
                            "answers": [
                                {
                                    "answer_start": 490,
                                    "text": "English"
                                },
                                {
                                    "answer_start": 502,
                                    "text": "Spanish"
                                }
                            ],
                            "id": 857,
                            "question": "What is one of the languages Brian Floyd knows?",
                            "is_impossible": "false"
                        },
                        {
                            "answers": [],
                            "id": -858,
                            "question": "What is one of Brian Floyd's native languages?",
                            "is_impossible": "true"
                        },
                        {
                            "answers": [],
                            "id": -859,
                            "question": "What was Brian Floyd's date of death?",
                            "is_impossible": "true"
                        },
                        {
                            "answers": [
                                {
                                    "answer_start": 581,
                                    "text": "US"
                                },
                                {
                                    "answer_start": 588,
                                    "text": "Mexico"
                                }
                            ],
                            "id": 860,
                            "question": "What is one of Brian Floyd's citizenships?",
                            "is_impossible": "false"
                        },
                        {
                            "answers": [],
                            "id": -861,
                            "question": "What is Brian Floyd's age?",
                            "is_impossible": "true"
                        },
                        {
                            "answers": [
                                {
                                    "answer_start": 605,
                                    "text": "unmarried"
                                }
                            ],
                            "id": 862,
                            "question": "What is Brian Floyd's marital status?",
                            "is_impossible": "false"
                        },
                        {
                            "answers": [
                                {
                                    "answer_start": 692,
                                    "text": "Dennis"
                                }
                            ],
                            "id": 863,
                            "question": "What is Dennis Spence's first name?",
                            "is_impossible": "false"
                        },
                        {
                            "answers": [
                                {
                                    "answer_start": 699,
                                    "text": "Spence"
                                }
                            ],
                            "id": 864,
                            "question": "What is Dennis Spence's last name?",
                            "is_impossible": "false"
                        },
                        {
                            "answers": [],
                            "id": -865,
                            "question": "What is Dennis Spence's date of birth?",
                            "is_impossible": "true"
                        },
                        {
                            "answers": [
                                {
                                    "answer_start": 721,
                                    "text": "east coast"
                                }
                            ],
                            "id": 866,
                            "question": "Where was Dennis Spence born?",
                            "is_impossible": "false"
                        },
                        {
                            "answers": [
                                {
                                    "answer_start": 783,
                                    "text": "5'11\""
                                }
                            ],
                            "id": 867,
                            "question": "What is Dennis Spence's height?",
                            "is_impossible": "false"
                        },
                        {
                            "answers": [
                                {
                                    "answer_start": 793,
                                    "text": "175 pounds"
                                }
                            ],
                            "id": 868,
                            "question": "What is Dennis Spence's weight?",
                            "is_impossible": "false"
                        },
                        {
                            "answers": [
                                {
                                    "answer_start": 910,
                                    "text": "deep brown"
                                }
                            ],
                            "id": 869,
                            "question": "What is Dennis Spence's eye colour?",
                            "is_impossible": "false"
                        },
                        {
                            "answers": [
                                {
                                    "answer_start": 930,
                                    "text": "dark"
                                }
                            ],
                            "id": 870,
                            "question": "What is Dennis Spence's hair colour?",
                            "is_impossible": "false"
                        },
                        {
                            "answers": [
                                {
                                    "answer_start": 1047,
                                    "text": "French"
                                },
                                {
                                    "answer_start": 1058,
                                    "text": "German"
                                }
                            ],
                            "id": 871,
                            "question": "What is one of the languages Dennis Spence knows?",
                            "is_impossible": "false"
                        },
                        {
                            "answers": [],
                            "id": -872,
                            "question": "What is one of Dennis Spence's native languages?",
                            "is_impossible": "true"
                        },
                        {
                            "answers": [],
                            "id": -873,
                            "question": "What was Dennis Spence's date of death?",
                            "is_impossible": "true"
                        },
                        {
                            "answers": [
                                {
                                    "answer_start": 1153,
                                    "text": "US"
                                },
                                {
                                    "answer_start": 1160,
                                    "text": "France"
                                }
                            ],
                            "id": 874,
                            "question": "What is one of Dennis Spence's citizenships?",
                            "is_impossible": "false"
                        },
                        {
                            "answers": [],
                            "id": -875,
                            "question": "What is Dennis Spence's age?",
                            "is_impossible": "true"
                        },
                        {
                            "answers": [
                                {
                                    "answer_start": 1182,
                                    "text": "married"
                                }
                            ],
                            "id": 876,
                            "question": "What is Dennis Spence's marital status?",
                            "is_impossible": "false"
                        },
                        {
                            "answers": [
                                {
                                    "answer_start": 1290,
                                    "text": "Frederic"
                                }
                            ],
                            "id": 877,
                            "question": "What is Frederic May's first name?",
                            "is_impossible": "false"
                        },
                        {
                            "answers": [
                                {
                                    "answer_start": 1299,
                                    "text": "May"
                                }
                            ],
                            "id": 878,
                            "question": "What is Frederic May's last name?",
                            "is_impossible": "false"
                        },
                        {
                            "answers": [],
                            "id": -879,
                            "question": "What is Frederic May's date of birth?",
                            "is_impossible": "true"
                        },
                        {
                            "answers": [
                                {
                                    "answer_start": 1330,
                                    "text": "UK"
                                }
                            ],
                            "id": 880,
                            "question": "Where was Frederic May born?",
                            "is_impossible": "false"
                        },
                        {
                            "answers": [
                                {
                                    "answer_start": 1411,
                                    "text": "6'2\""
                                }
                            ],
                            "id": 881,
                            "question": "What is Frederic May's height?",
                            "is_impossible": "false"
                        },
                        {
                            "answers": [
                                {
                                    "answer_start": 1420,
                                    "text": "200 pounds"
                                }
                            ],
                            "id": 882,
                            "question": "What is Frederic May's weight?",
                            "is_impossible": "false"
                        },
                        {
                            "answers": [
                                {
                                    "answer_start": 1485,
                                    "text": "green"
                                }
                            ],
                            "id": 883,
                            "question": "What is Frederic May's eye colour?",
                            "is_impossible": "false"
                        },
                        {
                            "answers": [
                                {
                                    "answer_start": 1500,
                                    "text": "wavy brown"
                                }
                            ],
                            "id": 884,
                            "question": "What is Frederic May's hair colour?",
                            "is_impossible": "false"
                        },
                        {
                            "answers": [
                                {
                                    "answer_start": 1582,
                                    "text": "English"
                                },
                                {
                                    "answer_start": 1591,
                                    "text": "French"
                                },
                                {
                                    "answer_start": 1599,
                                    "text": "German"
                                },
                                {
                                    "answer_start": 1611,
                                    "text": "Mandarin"
                                }
                            ],
                            "id": 885,
                            "question": "What is one of the languages Frederic May knows?",
                            "is_impossible": "false"
                        },
                        {
                            "answers": [],
                            "id": -886,
                            "question": "What is one of Frederic May's native languages?",
                            "is_impossible": "true"
                        },
                        {
                            "answers": [],
                            "id": -887,
                            "question": "What was Frederic May's date of death?",
                            "is_impossible": "true"
                        },
                        {
                            "answers": [
                                {
                                    "answer_start": 1658,
                                    "text": "UK"
                                },
                                {
                                    "answer_start": 1665,
                                    "text": "China"
                                }
                            ],
                            "id": 888,
                            "question": "What is one of Frederic May's citizenships?",
                            "is_impossible": "false"
                        },
                        {
                            "answers": [],
                            "id": -889,
                            "question": "What is Frederic May's age?",
                            "is_impossible": "true"
                        },
                        {
                            "answers": [
                                {
                                    "answer_start": 1891,
                                    "text": "never married"
                                }
                            ],
                            "id": 890,
                            "question": "What is Frederic May's marital status?",
                            "is_impossible": "false"
                        }
                    ]
                }
            ]
        },
        {
            "title": "document_103",
            "paragraphs": [
                {
                    "context": "The first vehicle is a sedan with a VIN of 1HGCM56473A024307. It is a 2003 Honda Accord with a primary color of silver and a secondary color of black. This four-door sedan has been a popular model among car buyers for many years, known for its reliability and fuel efficiency. With a sleek design and spacious interior, the Honda Accord is perfect for commuting or long road trips. The second vehicle is a sports car with a VIN of WBAWL73548P180468. It is a 2008 BMW M3 with a primary color of blue and a secondary color of white. The BMW M3 is a high-performance vehicle that offers a thrilling driving experience. With its powerful engine, advanced suspension system, and aerodynamic design, this sports car is sure to turn heads on the road. The third vehicle is an SUV with a VIN of 5N1DR2MMXLC516387. It is a 2020 Nissan Pathfinder with a primary color of black and a secondary color of gray. The Pathfinder is a popular choice for families, offering plenty of space for passengers and cargo. With its advanced safety features, comfortable ride, and impressive off-road capabilities, the Nissan Pathfinder is a versatile vehicle that can handle any adventure.",
                    "qas": [
                        {
                            "answers": [
                                {
                                    "answer_start": 43,
                                    "text": "1HGCM56473A024307"
                                }
                            ],
                            "id": 2735,
                            "question": "What is the Honda Accord's vin?",
                            "is_impossible": "false"
                        },
                        {
                            "answers": [
                                {
                                    "answer_start": 75,
                                    "text": "Honda"
                                }
                            ],
                            "id": 2736,
                            "question": "What make is the Honda Accord?",
                            "is_impossible": "false"
                        },
                        {
                            "answers": [
                                {
                                    "answer_start": 81,
                                    "text": "Accord"
                                }
                            ],
                            "id": 2737,
                            "question": "What model is the Honda Accord?",
                            "is_impossible": "false"
                        },
                        {
                            "answers": [
                                {
                                    "answer_start": 70,
                                    "text": "2003"
                                }
                            ],
                            "id": 2738,
                            "question": "When was the Honda Accord manufactured?",
                            "is_impossible": "false"
                        },
                        {
                            "answers": [
                                {
                                    "answer_start": 112,
                                    "text": "silver"
                                }
                            ],
                            "id": 2739,
                            "question": "What one of Honda Accord's primary colours?",
                            "is_impossible": "false"
                        },
                        {
                            "answers": [
                                {
                                    "answer_start": 144,
                                    "text": "black"
                                }
                            ],
                            "id": 2740,
                            "question": "What is one of Honda Accord's secondary colours?",
                            "is_impossible": "false"
                        },
                        {
                            "answers": [
                                {
                                    "answer_start": 431,
                                    "text": "WBAWL73548P180468"
                                }
                            ],
                            "id": 2741,
                            "question": "What is the BMW M3's vin?",
                            "is_impossible": "false"
                        },
                        {
                            "answers": [
                                {
                                    "answer_start": 463,
                                    "text": "BMW"
                                }
                            ],
                            "id": 2742,
                            "question": "What make is the BMW M3?",
                            "is_impossible": "false"
                        },
                        {
                            "answers": [
                                {
                                    "answer_start": 467,
                                    "text": "M3"
                                }
                            ],
                            "id": 2743,
                            "question": "What model is the BMW M3?",
                            "is_impossible": "false"
                        },
                        {
                            "answers": [
                                {
                                    "answer_start": 458,
                                    "text": "2008"
                                }
                            ],
                            "id": 2744,
                            "question": "When was the BMW M3 manufactured?",
                            "is_impossible": "false"
                        },
                        {
                            "answers": [
                                {
                                    "answer_start": 494,
                                    "text": "blue"
                                }
                            ],
                            "id": 2745,
                            "question": "What one of BMW M3's primary colours?",
                            "is_impossible": "false"
                        },
                        {
                            "answers": [
                                {
                                    "answer_start": 524,
                                    "text": "white"
                                }
                            ],
                            "id": 2746,
                            "question": "What is one of BMW M3's secondary colours?",
                            "is_impossible": "false"
                        },
                        {
                            "answers": [
                                {
                                    "answer_start": 787,
                                    "text": "5N1DR2MMXLC516387"
                                }
                            ],
                            "id": 2747,
                            "question": "What is the Nissan Pathfinder's vin?",
                            "is_impossible": "false"
                        },
                        {
                            "answers": [
                                {
                                    "answer_start": 819,
                                    "text": "Nissan"
                                }
                            ],
                            "id": 2748,
                            "question": "What make is the Nissan Pathfinder?",
                            "is_impossible": "false"
                        },
                        {
                            "answers": [
                                {
                                    "answer_start": 826,
                                    "text": "Pathfinder"
                                }
                            ],
                            "id": 2749,
                            "question": "What model is the Nissan Pathfinder?",
                            "is_impossible": "false"
                        },
                        {
                            "answers": [
                                {
                                    "answer_start": 814,
                                    "text": "2020"
                                }
                            ],
                            "id": 2750,
                            "question": "When was the Nissan Pathfinder manufactured?",
                            "is_impossible": "false"
                        },
                        {
                            "answers": [
                                {
                                    "answer_start": 861,
                                    "text": "black"
                                }
                            ],
                            "id": 2751,
                            "question": "What one of Nissan Pathfinder's primary colours?",
                            "is_impossible": "false"
                        },
                        {
                            "answers": [
                                {
                                    "answer_start": 892,
                                    "text": "gray"
                                }
                            ],
                            "id": 2752,
                            "question": "What is one of Nissan Pathfinder's secondary colours?",
                            "is_impossible": "false"
                        }
                    ]
                }
            ]
        },
        {
            "title": "document_88",
            "paragraphs": [
                {
                    "context": "Hacking For Charity is a technology-focused non-profit organization founded on January 1, 2010, with its headquarters located in San Francisco, California. The organization's main objective is to provide technological assistance to non-profits and charitable organizations around the world by means of ethical hacking. With a total of 25 employees, the organization generates an annual revenue of $500,000. BlueStar Non Profit is a non-profit organization that was founded on May 15, 2005, and is located in New York City, New York. This organization primarily focuses on social services, aiming to help people in need. BlueStar Non Profit currently employs 100 people and generates an annual revenue of $2 million. Business Gram is a public organization founded on March 10, 2020, with its headquarters located in Seattle, Washington. The organization primarily focuses on communications, helping other businesses with their internal and external communication strategies. Business Gram is a relatively large organization, employing 500 individuals, and generating an annual revenue of $50 million.",
                    "qas": [
                        {
                            "answers": [
                                {
                                    "answer_start": 79,
                                    "text": "January 1, 2010"
                                }
                            ],
                            "id": 2438,
                            "question": "When was Hacking For Charity founded?",
                            "is_impossible": "false"
                        },
                        {
                            "answers": [],
                            "id": -2439,
                            "question": "When did Hacking For Charity become defunct?",
                            "is_impossible": "true"
                        },
                        {
                            "answers": [
                                {
                                    "answer_start": 25,
                                    "text": "technology-focused non-profit"
                                }
                            ],
                            "id": 2440,
                            "question": "What industry is Hacking For Charity in?",
                            "is_impossible": "false"
                        },
                        {
                            "answers": [
                                {
                                    "answer_start": 44,
                                    "text": "non-profit"
                                }
                            ],
                            "id": 2441,
                            "question": "What is Hacking For Charity's organization type?",
                            "is_impossible": "false"
                        },
                        {
                            "answers": [
                                {
                                    "answer_start": 335,
                                    "text": "25"
                                }
                            ],
                            "id": 2442,
                            "question": "How many employees does Hacking For Charity have?",
                            "is_impossible": "false"
                        },
                        {
                            "answers": [
                                {
                                    "answer_start": 397,
                                    "text": "$500,000"
                                }
                            ],
                            "id": 2443,
                            "question": "What is Hacking For Charity's annual revenue?",
                            "is_impossible": "false"
                        },
                        {
                            "answers": [
                                {
                                    "answer_start": 129,
                                    "text": "San Francisco, California"
                                }
                            ],
                            "id": 2444,
                            "question": "Where is Hacking For Charity's headquarters located?",
                            "is_impossible": "false"
                        },
                        {
                            "answers": [
                                {
                                    "answer_start": 476,
                                    "text": "May 15, 2005"
                                }
                            ],
                            "id": 2445,
                            "question": "When was BlueStar Non Profit founded?",
                            "is_impossible": "false"
                        },
                        {
                            "answers": [],
                            "id": -2446,
                            "question": "When did BlueStar Non Profit become defunct?",
                            "is_impossible": "true"
                        },
                        {
                            "answers": [
                                {
                                    "answer_start": 572,
                                    "text": "social services"
                                }
                            ],
                            "id": 2447,
                            "question": "What industry is BlueStar Non Profit in?",
                            "is_impossible": "false"
                        },
                        {
                            "answers": [
                                {
                                    "answer_start": 432,
                                    "text": "non-profit"
                                }
                            ],
                            "id": 2448,
                            "question": "What is BlueStar Non Profit's organization type?",
                            "is_impossible": "false"
                        },
                        {
                            "answers": [
                                {
                                    "answer_start": 658,
                                    "text": "100"
                                }
                            ],
                            "id": 2449,
                            "question": "How many employees does BlueStar Non Profit have?",
                            "is_impossible": "false"
                        },
                        {
                            "answers": [
                                {
                                    "answer_start": 704,
                                    "text": "$2 million"
                                }
                            ],
                            "id": 2450,
                            "question": "What is BlueStar Non Profit's annual revenue?",
                            "is_impossible": "false"
                        },
                        {
                            "answers": [
                                {
                                    "answer_start": 508,
                                    "text": "New York City, New York"
                                }
                            ],
                            "id": 2451,
                            "question": "Where is BlueStar Non Profit's headquarters located?",
                            "is_impossible": "false"
                        },
                        {
                            "answers": [
                                {
                                    "answer_start": 766,
                                    "text": "March 10, 2020"
                                }
                            ],
                            "id": 2452,
                            "question": "When was Business Gram founded?",
                            "is_impossible": "false"
                        },
                        {
                            "answers": [],
                            "id": -2453,
                            "question": "When did Business Gram become defunct?",
                            "is_impossible": "true"
                        },
                        {
                            "answers": [
                                {
                                    "answer_start": 874,
                                    "text": "communications"
                                }
                            ],
                            "id": 2454,
                            "question": "What industry is Business Gram in?",
                            "is_impossible": "false"
                        },
                        {
                            "answers": [
                                {
                                    "answer_start": 735,
                                    "text": "public"
                                }
                            ],
                            "id": 2455,
                            "question": "What is Business Gram's organization type?",
                            "is_impossible": "false"
                        },
                        {
                            "answers": [
                                {
                                    "answer_start": 1034,
                                    "text": "500"
                                }
                            ],
                            "id": 2456,
                            "question": "How many employees does Business Gram have?",
                            "is_impossible": "false"
                        },
                        {
                            "answers": [
                                {
                                    "answer_start": 1087,
                                    "text": "$50 million"
                                }
                            ],
                            "id": 2457,
                            "question": "What is Business Gram's annual revenue?",
                            "is_impossible": "false"
                        },
                        {
                            "answers": [
                                {
                                    "answer_start": 815,
                                    "text": "Seattle, Washington"
                                }
                            ],
                            "id": 2458,
                            "question": "Where is Business Gram's headquarters located?",
                            "is_impossible": "false"
                        }
                    ]
                }
            ]
        },
        {
            "title": "document_99",
            "paragraphs": [
                {
                    "context": "The first weapon is a sleek and deadly black handgun with an ID number of 38492. Manufactured in 2018, this semi-automatic firearm is known as the Glock 19. Its primary color is a matte black finish, giving it a discreet and professional appearance. The weapon's secondary color is a deep gray, present on the slide and barrel. The Glock 19 is a popular choice for law enforcement and civilian use due to its reliability and accuracy. This weapon is capable of carrying up to 15 rounds in its magazine, making it a formidable tool in the right hands. The second weapon is a long-range sniper rifle with an ID number of 28304. Made by Remington in 2020, the model is called the 700P. Its primary color is a matte olive green, which blends seamlessly into natural surroundings, allowing the shooter to remain hidden. The secondary color is a dark brown, present on the wooden stock, giving it a traditional and classic appearance. This bolt-action rifle is known for its exceptional accuracy and long-range capability, making it a popular choice for military snipers and competitive shooters alike. The third weapon is a futuristic-looking assault rifle with an ID number of 58471. This weapon was manufactured in 2022 by FN Herstal and is called the SCAR-L. The primary color is a metallic silver, giving it a high-tech appearance, while the secondary color is a matte black, which provides a contrast to the shiny finish. This rifle is capable of firing both single shots and full-auto bursts, making it versatile in combat situations. The SCAR-L's design allows for customization, including adjustable sto",
                    "qas": [
                        {
                            "answers": [
                                {
                                    "answer_start": 74,
                                    "text": "38492"
                                }
                            ],
                            "id": 2663,
                            "question": "What is the Glock 19's id number?",
                            "is_impossible": "false"
                        },
                        {
                            "answers": [
                                {
                                    "answer_start": 147,
                                    "text": "Glock"
                                },
                                {
                                    "answer_start": 332,
                                    "text": "Glock"
                                }
                            ],
                            "id": 2664,
                            "question": "What make is the Glock 19?",
                            "is_impossible": "false"
                        },
                        {
                            "answers": [
                                {
                                    "answer_start": 153,
                                    "text": "19"
                                },
                                {
                                    "answer_start": 338,
                                    "text": "19"
                                }
                            ],
                            "id": 2665,
                            "question": "What model is the Glock 19?",
                            "is_impossible": "false"
                        },
                        {
                            "answers": [
                                {
                                    "answer_start": 97,
                                    "text": "2018"
                                }
                            ],
                            "id": 2666,
                            "question": "When was the Glock 19 manufactured?",
                            "is_impossible": "false"
                        },
                        {
                            "answers": [
                                {
                                    "answer_start": 180,
                                    "text": "matte black"
                                }
                            ],
                            "id": 2667,
                            "question": "What is one of the Glock 19's primary colours?",
                            "is_impossible": "false"
                        },
                        {
                            "answers": [
                                {
                                    "answer_start": 284,
                                    "text": "deep gray"
                                }
                            ],
                            "id": 2668,
                            "question": "What is one of the Glock 19's secondary colours?",
                            "is_impossible": "false"
                        },
                        {
                            "answers": [
                                {
                                    "answer_start": 619,
                                    "text": "28304"
                                }
                            ],
                            "id": 2669,
                            "question": "What is the Remington 700P's id number?",
                            "is_impossible": "false"
                        },
                        {
                            "answers": [
                                {
                                    "answer_start": 634,
                                    "text": "Remington"
                                }
                            ],
                            "id": 2670,
                            "question": "What make is the Remington 700P?",
                            "is_impossible": "false"
                        },
                        {
                            "answers": [
                                {
                                    "answer_start": 677,
                                    "text": "700P"
                                }
                            ],
                            "id": 2671,
                            "question": "What model is the Remington 700P?",
                            "is_impossible": "false"
                        },
                        {
                            "answers": [
                                {
                                    "answer_start": 647,
                                    "text": "2020"
                                }
                            ],
                            "id": 2672,
                            "question": "When was the Remington 700P manufactured?",
                            "is_impossible": "false"
                        },
                        {
                            "answers": [
                                {
                                    "answer_start": 706,
                                    "text": "matte olive green"
                                }
                            ],
                            "id": 2673,
                            "question": "What is one of the Remington 700P's primary colours?",
                            "is_impossible": "false"
                        },
                        {
                            "answers": [
                                {
                                    "answer_start": 840,
                                    "text": "dark brown"
                                }
                            ],
                            "id": 2674,
                            "question": "What is one of the Remington 700P's secondary colours?",
                            "is_impossible": "false"
                        },
                        {
                            "answers": [
                                {
                                    "answer_start": 1173,
                                    "text": "58471"
                                }
                            ],
                            "id": 2675,
                            "question": "What is the FN Herstal SCAR-L's id number?",
                            "is_impossible": "false"
                        },
                        {
                            "answers": [
                                {
                                    "answer_start": 1220,
                                    "text": "FN Herstal"
                                }
                            ],
                            "id": 2676,
                            "question": "What make is the FN Herstal SCAR-L?",
                            "is_impossible": "false"
                        },
                        {
                            "answers": [
                                {
                                    "answer_start": 1249,
                                    "text": "SCAR-L"
                                }
                            ],
                            "id": 2677,
                            "question": "What model is the FN Herstal SCAR-L?",
                            "is_impossible": "false"
                        },
                        {
                            "answers": [
                                {
                                    "answer_start": 1212,
                                    "text": "2022"
                                }
                            ],
                            "id": 2678,
                            "question": "When was the FN Herstal SCAR-L manufactured?",
                            "is_impossible": "false"
                        },
                        {
                            "answers": [
                                {
                                    "answer_start": 1280,
                                    "text": "metallic silver"
                                }
                            ],
                            "id": 2679,
                            "question": "What is one of the FN Herstal SCAR-L's primary colours?",
                            "is_impossible": "false"
                        },
                        {
                            "answers": [
                                {
                                    "answer_start": 1362,
                                    "text": "matte black"
                                }
                            ],
                            "id": 2680,
                            "question": "What is one of the FN Herstal SCAR-L's secondary colours?",
                            "is_impossible": "false"
                        }
                    ]
                }
            ]
        }
    ]
}